GRP on a weather
…
## # A tibble: 6 x 11
##   `system:index`   temp_w name_1 prec_w type  region   year month    pop temp_wa
##   <chr>             <dbl> <chr>   <dbl> <chr> <chr>   <dbl> <dbl>  <dbl>   <dbl>
## 1 00000000000000~  9.24e8 City ~ 1.87e5 Gors~ Sankt-~  1998     1 3.42e6    270.
## 2 00000000000000~  2.05e9 Mosco~ 3.44e5 Gorod <NA>     1998     1 7.67e6    268.
## 3 00000000000000~  1.96e8 Amur   3.47e3 Obla~ Amursk~  1998     1 7.99e5    245.
## 4 00000000000000~  2.87e8 Arkha~ 6.01e4 Obla~ Arcang~  1998     1 1.09e6    263.
## 5 00000000000000~  2.23e8 Astra~ 1.27e4 Obla~ Astrac~  1998     1 8.36e5    266.
## 6 00000000000000~  3.53e8 Belgo~ 3.94e4 Obla~ Belgor~  1998     1 1.32e6    267.
## # ... with 1 more variable: prec_wa <dbl>

count(data, name_1)

## # A tibble: 83 x 2
##    name_1            n
##    <chr>         <int>
##  1 Adygey          264
##  2 Altay           264
##  3 Amur            264
##  4 Arkhangel'sk    264
##  5 Astrakhan'      264
##  6 Bashkortostan   264
##  7 Belgorod        264
##  8 Bryansk         264
##  9 Buryat          264
## 10 Chechnya        264
## # ... with 73 more rows

data[data$name_1=="Sverdlovsk", ]

## # A tibble: 792 x 11
##    `system:index`  temp_w name_1 prec_w type  region   year month    pop temp_wa
##    <chr>            <dbl> <chr>   <dbl> <chr> <chr>   <dbl> <dbl>  <dbl>   <dbl>
##  1 00000000000000~ 2.40e4 Sverd~ 2.34e0 Obla~ Yekate~  1998     1 9.20e1    261.
##  2 00000000000000~ 3.63e7 Sverd~ 3.13e3 Obla~ Yekate~  1998     1 1.39e5    260.
##  3 00000000000000~ 9.72e8 Sverd~ 1.07e5 Obla~ Yekate~  1998     1 3.73e6    260.
##  4 00000000000000~ 2.36e4 Sverd~ 4.19e0 Obla~ Yekate~  1998     2 9.20e1    257.
##  5 00000000000000~ 3.58e7 Sverd~ 5.90e3 Obla~ Yekate~  1998     2 1.39e5    257.
##  6 00000000000000~ 9.56e8 Sverd~ 1.76e5 Obla~ Yekate~  1998     2 3.73e6    256.
##  7 00000000000000~ 2.47e4 Sverd~ 1.60e0 Obla~ Yekate~  1998     3 9.20e1    269.
##  8 00000000000000~ 3.74e7 Sverd~ 1.92e3 Obla~ Yekate~  1998     3 1.39e5    269.
##  9 00000000000000~ 1.00e9 Sverd~ 7.39e4 Obla~ Yekate~  1998     3 3.73e6    269.
## 10 00000000000000~ 2.49e4 Sverd~ 5.12e0 Obla~ Yekate~  1998     4 9.20e1    271.
## # ... with 782 more rows, and 1 more variable: prec_wa <dbl>
…
GRP = pivot_longer(GRP, cols = c('1998', '1999', '2000', '2001', '2002', '2003', '2004', '2005', '2006', '2007', '2008', '2009', '2010', '2011', '2012', '2013', '2014', '2015', '2016', '2017', '2018', '2019'), values_to = "vrp", names_to = "year")

GRP$year=as.numeric(GRP$year)
GRP$vrp=as.numeric(GRP$vrp)

## Warning:     NA

GRP=select(GRP, -region_rus)
filter(GRP, code==20)

## # A tibble: 22 x 3
##     code  year    vrp
##    <dbl> <dbl>  <dbl>
##  1    20  1998    NA 
##  2    20  1999    NA 
##  3    20  2000    NA 
##  4    20  2001    NA 
##  5    20  2002    NA 
##  6    20  2003    NA 
##  7    20  2004    NA 
##  8    20  2005 22899.
##  9    20  2006 32344.
## 10    20  2007 48056.
## # ... with 12 more rows
…
